{
  "counts": {
    "users": 8,
    "groups": 1,
    "overviews": 9,
    "tickets": 2,
    "ticket_articles": 3,
    "text_modules": 27,
    "object_manager_attributes": 48,
    "knowledge_base_categories": 0,
    "knowledge_base_answers": 0
  },
  "last_created_at": {
    "users": "2020-03-21T13:05:10.911Z",
    "groups": "2020-03-20T15:04:31.031Z",
    "overviews": "2020-03-20T15:04:34.456Z",
    "tickets": "2020-03-21T13:00:37.269Z",
    "ticket_articles": "2020-03-21T13:00:37.838Z",
    "text_modules": "2020-03-20T15:26:01.105Z",
    "object_manager_attributes": "2020-03-20T15:04:36.198Z",
    "knowledge_base_categories": null,
    "knowledge_base_answers": null
  },
  "last_login": "2020-03-21T12:55:15.798Z",
  "agents": 3,
  "storage": {
    "kB": 67,
    "MB": 0,
    "GB": 0
  }
}
